<?xml version="1.0" encoding="utf-8"  standalone="no"?>
<!DOCTYPE svg PUBLIC "-//W3C//DTD SVG 1.1//EN" 
 "http://www.w3.org/Graphics/SVG/1.1/DTD/svg11.dtd">
<!--
  Copyright (c) 2010, 2023 Contributors to the Eclipse Foundation

  See the NOTICE file(s) distributed with this work for additional
  information regarding copyright ownership.

  This program and the accompanying materials are made available under the terms
  of the MIT License which is available at https://opensource.org/licenses/MIT

  SPDX-License-Identifier: MIT
-->
<svg width="600" height="480" viewBox="0 0 600 480"
 xmlns="http://www.w3.org/2000/svg"
 xmlns:xlink="http://www.w3.org/1999/xlink"
>

<title>gnuplot</title>
<desc>Produced by GNUPLOT 4.4 patchlevel 4 </desc>

<defs>

	<circle id='gpDot' r='0.5' stroke-width='0.5'/>
	<path id='gpPt0' stroke-width='0.222' stroke='currentColor' d='M-1,0 h2 M0,-1 v2'/>
	<path id='gpPt1' stroke-width='0.222' stroke='currentColor' d='M-1,-1 L1,1 M1,-1 L-1,1'/>
	<path id='gpPt2' stroke-width='0.222' stroke='currentColor' d='M-1,0 L1,0 M0,-1 L0,1 M-1,-1 L1,1 M-1,1 L1,-1'/>
	<rect id='gpPt3' stroke-width='0.222' stroke='currentColor' x='-1' y='-1' width='2' height='2'/>
	<rect id='gpPt4' stroke-width='0.222' stroke='currentColor' fill='currentColor' x='-1' y='-1' width='2' height='2'/>
	<circle id='gpPt5' stroke-width='0.222' stroke='currentColor' cx='0' cy='0' r='1'/>
	<use xlink:href='#gpPt5' id='gpPt6' fill='currentColor' stroke='none'/>
	<path id='gpPt7' stroke-width='0.222' stroke='currentColor' d='M0,-1.33 L-1.33,0.67 L1.33,0.67 z'/>
	<use xlink:href='#gpPt7' id='gpPt8' fill='currentColor' stroke='none'/>
	<use xlink:href='#gpPt7' id='gpPt9' stroke='currentColor' transform='rotate(180)'/>
	<use xlink:href='#gpPt9' id='gpPt10' fill='currentColor' stroke='none'/>
	<use xlink:href='#gpPt3' id='gpPt11' stroke='currentColor' transform='rotate(45)'/>
	<use xlink:href='#gpPt11' id='gpPt12' fill='currentColor' stroke='none'/>
</defs>
<g style="fill:none; color:white; stroke:currentColor; stroke-width:1.00; stroke-linecap:butt; stroke-linejoin:miter">
</g>
<g style="fill:none; color:black; stroke:currentColor; stroke-width:1.00; stroke-linecap:butt; stroke-linejoin:miter">
	<path  d='M80.2,422.4 L89.2,422.4 M575.0,422.4 L566.0,422.4 '></path>
	<g transform="translate(71.9,426.9)" style="stroke:none; fill:black; font-family:Arial; font-size:12.00pt; text-anchor:end">
		<text> 0</text>
	</g>
	<path  d='M80.2,341.3 L89.2,341.3 M575.0,341.3 L566.0,341.3 '></path>
	<g transform="translate(71.9,345.8)" style="stroke:none; fill:black; font-family:Arial; font-size:12.00pt; text-anchor:end">
		<text> 0.05</text>
	</g>
	<path  d='M80.2,260.1 L89.2,260.1 M575.0,260.1 L566.0,260.1 '></path>
	<g transform="translate(71.9,264.6)" style="stroke:none; fill:black; font-family:Arial; font-size:12.00pt; text-anchor:end">
		<text> 0.1</text>
	</g>
	<path  d='M80.2,179.0 L89.2,179.0 M575.0,179.0 L566.0,179.0 '></path>
	<g transform="translate(71.9,183.5)" style="stroke:none; fill:black; font-family:Arial; font-size:12.00pt; text-anchor:end">
		<text> 0.15</text>
	</g>
	<path  d='M80.2,97.8 L89.2,97.8 M575.0,97.8 L566.0,97.8 '></path>
	<g transform="translate(71.9,102.3)" style="stroke:none; fill:black; font-family:Arial; font-size:12.00pt; text-anchor:end">
		<text> 0.2</text>
	</g>
	<path  d='M80.2,16.7 L89.2,16.7 M575.0,16.7 L566.0,16.7 '></path>
	<g transform="translate(71.9,21.2)" style="stroke:none; fill:black; font-family:Arial; font-size:12.00pt; text-anchor:end">
		<text> 0.25</text>
	</g>
	<path  d='M121.4,422.4 L121.4,413.4 M121.4,16.7 L121.4,25.7 '></path>
	<g transform="translate(121.4,444.9)" style="stroke:none; fill:black; font-family:Arial; font-size:12.00pt; text-anchor:middle">
		<text> 1</text>
	</g>
	<path  d='M203.9,422.4 L203.9,413.4 M203.9,16.7 L203.9,25.7 '></path>
	<g transform="translate(203.9,444.9)" style="stroke:none; fill:black; font-family:Arial; font-size:12.00pt; text-anchor:middle">
		<text> 2</text>
	</g>
	<path  d='M286.4,422.4 L286.4,413.4 M286.4,16.7 L286.4,25.7 '></path>
	<g transform="translate(286.4,444.9)" style="stroke:none; fill:black; font-family:Arial; font-size:12.00pt; text-anchor:middle">
		<text> 3</text>
	</g>
	<path  d='M368.8,422.4 L368.8,413.4 M368.8,16.7 L368.8,25.7 '></path>
	<g transform="translate(368.8,444.9)" style="stroke:none; fill:black; font-family:Arial; font-size:12.00pt; text-anchor:middle">
		<text> 4</text>
	</g>
	<path  d='M451.3,422.4 L451.3,413.4 M451.3,16.7 L451.3,25.7 '></path>
	<g transform="translate(451.3,444.9)" style="stroke:none; fill:black; font-family:Arial; font-size:12.00pt; text-anchor:middle">
		<text> 5</text>
	</g>
	<path  d='M533.8,422.4 L533.8,413.4 M533.8,16.7 L533.8,25.7 '></path>
	<g transform="translate(533.8,444.9)" style="stroke:none; fill:black; font-family:Arial; font-size:12.00pt; text-anchor:middle">
		<text> 6</text>
	</g>
	<path  d='M80.2,16.7 L80.2,422.4 L575.0,422.4 L575.0,16.7 L80.2,16.7 Z '></path>
	<g transform="translate(17.6,219.6) rotate(270)" style="stroke:none; fill:black; font-family:Arial; font-size:12.00pt; text-anchor:middle">
		<text>uniform(int a, b)</text>
	</g>
	<g transform="translate(327.6,471.9)" style="stroke:none; fill:black; font-family:Arial; font-size:12.00pt; text-anchor:middle">
		<text>x</text>
	</g>
	<g transform="translate(327.6,69.9)" style="stroke:none; fill:black; font-family:Arial; font-size:12.00pt; text-anchor:start">
		<text>uniform(1, 6)</text>
	</g>
</g>
	<g id="Plot_1"><title>Plot_1</title>
<g style="fill:none; color:red; stroke:currentColor; stroke-width:1.00; stroke-linecap:butt; stroke-linejoin:miter">
	<path  d='M121.4,422.4 L121.4,97.8 M203.9,422.4 L203.9,97.8 M286.4,422.4 L286.4,97.8 M368.8,422.4 L368.8,97.8 
		M451.3,422.4 L451.3,97.8 '></path>
</g>
	</g>
	<g id="Plot_2"><title>Plot_2</title>
<g style="fill:none; color:red; stroke:currentColor; stroke-width:1.00; stroke-linecap:butt; stroke-linejoin:miter">
	<use xlink:href='#gpDot' x='121.4' y='97.8'/>
	<use xlink:href='#gpDot' x='203.9' y='97.8'/>
	<use xlink:href='#gpDot' x='286.4' y='97.8'/>
	<use xlink:href='#gpDot' x='368.8' y='97.8'/>
	<use xlink:href='#gpDot' x='451.3' y='97.8'/>
</g>
	</g>
	<g id="Plot_3"><title>Plot_3</title>
<g style="fill:none; color:red; stroke:currentColor; stroke-width:1.00; stroke-linecap:butt; stroke-linejoin:miter">
	<use xlink:href='#gpPt5' transform='translate(533.8,97.8) scale(4.50)'/>
</g>
	</g>
<g style="fill:none; color:black; stroke:currentColor; stroke-width:1.00; stroke-linecap:butt; stroke-linejoin:miter">
	<path  d='M80.2,16.7 L80.2,422.4 L575.0,422.4 L575.0,16.7 L80.2,16.7 Z '></path>
</g>
</svg>

